^C:\USERS\GLITC\DOWNLOADS\АССЕМБЛЕРЫ\TAYLOR LN(X+1)\TAYLOR LN(X+1)\TAYLOR LN(X+1)\DEBUG\TAYLOR LN(X+1).OBJ
/OUT:"C:\USERS\GLITC\DOWNLOADS\АССЕМБЛЕРЫ\TAYLOR LN(X+1)\TAYLOR LN(X+1)\DEBUG\TAYLOR LN(X+1).EXE" /INCREMENTAL /NOLOGO KERNEL32.LIB USER32.LIB GDI32.LIB WINSPOOL.LIB COMDLG32.LIB ADVAPI32.LIB SHELL32.LIB OLE32.LIB OLEAUT32.LIB UUID.LIB ODBC32.LIB ODBCCP32.LIB /MANIFEST /MANIFESTUAC:"level='asInvoker' uiAccess='false'" /manifest:embed /DEBUG:FASTLINK /PDB:"C:\USERS\GLITC\DOWNLOADS\АССЕМБЛЕРЫ\TAYLOR LN(X+1)\TAYLOR LN(X+1)\DEBUG\TAYLOR LN(X+1).PDB" /SUBSYSTEM:CONSOLE /TLBID:1 /DYNAMICBASE /NXCOMPAT /IMPLIB:"C:\USERS\GLITC\DOWNLOADS\АССЕМБЛЕРЫ\TAYLOR LN(X+1)\TAYLOR LN(X+1)\DEBUG\TAYLOR LN(X+1).LIB" /MACHINE:X86 "DEBUG\TAYLOR LN(X+1).OBJ"
^C:\USERS\GLITC\DOWNLOADS\АССЕМБЛЕРЫ\ASSEMBLY-X86\TAYLOR LN(X+1)\TAYLOR LN(X+1)\TAYLOR LN(X+1)\DEBUG\TAYLOR LN(X+1).OBJ
/OUT:"C:\USERS\GLITC\DOWNLOADS\АССЕМБЛЕРЫ\ASSEMBLY-X86\TAYLOR LN(X+1)\TAYLOR LN(X+1)\DEBUG\TAYLOR LN(X+1).EXE" /INCREMENTAL /NOLOGO KERNEL32.LIB USER32.LIB GDI32.LIB WINSPOOL.LIB COMDLG32.LIB ADVAPI32.LIB SHELL32.LIB OLE32.LIB OLEAUT32.LIB UUID.LIB ODBC32.LIB ODBCCP32.LIB /MANIFEST /MANIFESTUAC:"level='asInvoker' uiAccess='false'" /manifest:embed /DEBUG:FASTLINK /PDB:"C:\USERS\GLITC\DOWNLOADS\АССЕМБЛЕРЫ\ASSEMBLY-X86\TAYLOR LN(X+1)\TAYLOR LN(X+1)\DEBUG\TAYLOR LN(X+1).PDB" /SUBSYSTEM:CONSOLE /TLBID:1 /DYNAMICBASE /NXCOMPAT /IMPLIB:"C:\USERS\GLITC\DOWNLOADS\АССЕМБЛЕРЫ\ASSEMBLY-X86\TAYLOR LN(X+1)\TAYLOR LN(X+1)\DEBUG\TAYLOR LN(X+1).LIB" /MACHINE:X86 "DEBUG\TAYLOR LN(X+1).OBJ"
